Milk components in body
…
load("plasma_milk_match_table")

library(openxlsx)

# wb = createWorkbook()
# modifyBaseFont(wb, fontSize = 12, fontName = "Time New Roma")
# addWorksheet(wb, sheetName = "Plasma milk match table", gridLines = TRUE)
# freezePane(wb, sheet = 1, firstRow = TRUE, firstCol = TRUE)
# writeDataTable(wb, sheet = 1, x = plasma_milk_match_table,
#                colNames = TRUE, rowNames = FALSE)
# saveWorkbook(wb, "plasma_milk_match_table.xlsx", overwrite = TRUE) ## save to working directory

plasma_milk_match_table

# A tibble: 558 x 7
   milk_variable_id plasma_variable mz.error rt.error milk_annotation
   <chr>            <chr>               <dbl>    <dbl> <chr>          
 1 rplc_pos_0.54_1 0.55_127.0389m/z    0.993     2.35 1,2,3-Benzenet
 2 rplc_pos_0.53_1 2.57_123.0440m/z    0.699   124.   <NA>           
 3 rplc_pos_2.84_1 0.68_127.0389m/z    1.44    129.   1,2,3-Benzenet
 4 rplc_pos_10.49_ 9.13_355.2839m/z    0.805    83.5  2-Linoleoylgly
 5 rplc_pos_10.55_ 10.68_356.2916n     1.51      9.19 1-OLEOYL-RAC-G
 6 rplc_pos_0.93_1 0.56_165.0789n      0.170    19.7  L-Phenylalanine
 7 rplc_pos_4.38_1 4.03_186.1124m/z    0.801    22.7  <NA>           
 8 rplc_pos_0.57_1 0.55_104.1069m/z    1.41      4.35 5-Amino-1-pent
 9 rplc_pos_3.11_1 2.37_179.0580n      1.26     42.4  Hippuric acid  
10 rplc_pos_4.63_1 3.95_219.0624m/z    0.672    38.0  <NA>           
#  with 548 more rows, and 2 more variables:
#   plasma_annotation <chr>, in_baseline <chr>
…
##here we define if the peaks are in baseline samples or not.
##we use the peaks in all the samples after drink milk, 5% quantile as the cutoff. 

table(plasma_milk_match_table$in_baseline)

 No Yes 
 28 530 

plasma_milk_match_table %>% 
  dplyr::filter(in_baseline == "No")

# A tibble: 28 x 7
   milk_variable_id plasma_variable mz.error rt.error milk_annotation
   <chr>            <chr>               <dbl>    <dbl> <chr>          
 1 rplc_pos_0.73_1 2.44_151.0389m/z    1.82   100.    <NA>           
 2 rplc_pos_1.04_1 1.43_152.0566m/z    0.779   21.3   Guanine        
 3 rplc_pos_9.90_1 9.93_173.1324m/z    1.01     0.290 <NA>           
 4 hilic_pos_8.57_ 7.75_126.0318n      1.80    52.3   1,2,3-Benzenet
 5 hilic_pos_8.57_ 8.54_168.0657m/z    2.11     3.97  1,2,3-Benzenet
 6 hilic_pos_5.71_ 6.23_121.0649m/z    1.56    29.7   Phenylacetalde
 7 hilic_pos_0.97_ 2.10_126.0551m/z    2.32    67.8   N-Ethylmaleimi
 8 hilic_pos_1.21_ 1.67_199.1079m/z    1.87    29.5   <NA>           
 9 hilic_pos_1.55_ 1.80_195.0766m/z    1.70    15.1   <NA>           
10 hilic_pos_6.18_ 6.13_253.1180m/z    0.701    5.01  <NA>           
#  with 18 more rows, and 2 more variables: plasma_annotation <chr>,
#   in_baseline <chr>
…
